…
fit_knn <-
  knn_workflow_finalized %>%
  fit(df_train)
```

``` r
# Usual way of making predictions and storing the predicted classes

results_knn <- 
  predict(fit_knn, df_test) %>% 
  pluck(1) %>% 
  bind_cols(df_test, Predicted_Class = .)

results_knn
#> # A tibble: 223 x 16
#>    passengerid survived pclass name   sex     age sibsp parch ticket  fare cabin
#>          <dbl> <fct>     <dbl> <chr>  <chr> <dbl> <dbl> <dbl> <chr>  <dbl> <chr>
#>  1           1 0             3 Braun… male     22     1     0 A/5 2…  7.25 <NA> 
#>  2           3 1             3 Heikk… fema…    26     0     0 STON/…  7.92 <NA> 
#>  3           4 1             1 Futre… fema…    35     1     0 113803 53.1  C123 
#>  4           7 0             1 McCar… male     54     0     0 17463  51.9  E46  
#>  5           9 1             3 Johns… fema…    27     0     2 347742 11.1  <NA> 
#>  6          12 1             1 Bonne… fema…    58     0     0 113783 26.6  C103 
#>  7          15 0             3 Vestr… fema…    14     0     0 350406  7.85 <NA> 
#>  8          18 1             2 Willi… male     32     0     0 244373 13    <NA> 
#>  9          22 1             2 Beesl… male     34     0     0 248698 13    D56  
#> 10          25 0             3 Palss… fema…     8     3     1 349909 21.1  <NA> 
#> # … with 213 more rows, and 5 more variables: embarked <chr>,
#> #   family_on_board <dbl>, age_group <chr>, fare_category <chr>,
#> #   Predicted_Class <fct>
```
…
